$MeshFormat
2.2 0 8
$EndMeshFormat
$PhysicalNames
4
1 1 "LEFT"
1 2 "RIGHT"
1 3 "TB"
2 4 "DOMAIN"
$EndPhysicalNames
$Nodes
102
1 -0.00125 -2.5e-05 0
2 0.00125 -2.5e-05 0
3 0.00125 2.5e-05 0
4 -0.00125 2.5e-05 0
5 -0.00120000000000021 -2.5e-05 0
6 -0.001150000000000245 -2.5e-05 0
7 -0.001100000000000262 -2.5e-05 0
8 -0.001050000000000279 -2.5e-05 0
9 -0.001000000000000372 -2.5e-05 0
10 -0.0009500000000004761 -2.5e-05 0
11 -0.0009000000000006013 -2.5e-05 0
12 -0.0008500000000006528 -2.5e-05 0
13 -0.0008000000000007678 -2.5e-05 0
14 -0.0007500000000009812 -2.5e-05 0
15 -0.0007000000000011445 -2.5e-05 0
16 -0.0006500000000012698 -2.5e-05 0
17 -0.0006000000000014373 -2.5e-05 0
18 -0.0005500000000015627 -2.5e-05 0
19 -0.0005000000000017261 -2.5e-05 0
20 -0.0004500000000018979 -2.5e-05 0
21 -0.0004000000000020233 -2.5e-05 0
22 -0.0003500000000021908 -2.5e-05 0
23 -0.0003000000000023162 -2.5e-05 0
24 -0.0002500000000024711 -2.5e-05 0
25 -0.0002000000000027047 -2.5e-05 0
26 -0.0001500000000028692 -2.5e-05 0
27 -0.0001000000000028858 -2.5e-05 0
28 -5.000000000298234e-05 -2.5e-05 0
29 -3.173676599299569e-15 -2.5e-05 0
30 4.999999999698388e-05 -2.5e-05 0
31 9.999999999713125e-05 -2.5e-05 0
32 0.0001499999999971145 -2.5e-05 0
33 0.0001999999999972447 -2.5e-05 0
34 0.0002499999999974445 -2.5e-05 0
35 0.0002999999999976442 -2.5e-05 0
36 0.0003499999999978052 -2.5e-05 0
37 0.0003999999999977912 -2.5e-05 0
38 0.0004499999999979048 -2.5e-05 0
39 0.0004999999999981048 -2.5e-05 0
40 0.0005499999999983044 -2.5e-05 0
41 0.0005999999999984011 -2.5e-05 0
42 0.0006499999999983839 -2.5e-05 0
43 0.0006999999999984805 -2.5e-05 0
44 0.0007499999999986799 -2.5e-05 0
45 0.0007999999999988799 -2.5e-05 0
46 0.0008499999999990796 -2.5e-05 0
47 0.0008999999999992792 -2.5e-05 0
48 0.0009499999999994793 -2.5e-05 0
49 0.0009999999999993909 -2.5e-05 0
50 0.001049999999999221 -2.5e-05 0
51 0.001099999999999401 -2.5e-05 0
52 0.0011499999999996 -2.5e-05 0
53 0.0011999999999998 -2.5e-05 0
54 0.00120000000000021 2.5e-05 0
55 0.001150000000000245 2.5e-05 0
56 0.001100000000000262 2.5e-05 0
57 0.001050000000000279 2.5e-05 0
58 0.001000000000000372 2.5e-05 0
59 0.0009500000000004761 2.5e-05 0
60 0.0009000000000006013 2.5e-05 0
61 0.0008500000000006528 2.5e-05 0
62 0.0008000000000007678 2.5e-05 0
63 0.0007500000000009812 2.5e-05 0
64 0.0007000000000011445 2.5e-05 0
65 0.0006500000000012698 2.5e-05 0
66 0.0006000000000014373 2.5e-05 0
67 0.0005500000000015627 2.5e-05 0
68 0.0005000000000017261 2.5e-05 0
69 0.0004500000000018979 2.5e-05 0
70 0.0004000000000020233 2.5e-05 0
71 0.0003500000000021908 2.5e-05 0
72 0.0003000000000023162 2.5e-05 0
73 0.0002500000000024711 2.5e-05 0
74 0.0002000000000027047 2.5e-05 0
75 0.0001500000000028692 2.5e-05 0
76 0.0001000000000028858 2.5e-05 0
77 5.000000000298234e-05 2.5e-05 0
78 3.173676599299569e-15 2.5e-05 0
79 -4.999999999698388e-05 2.5e-05 0
80 -9.999999999713125e-05 2.5e-05 0
81 -0.0001499999999971145 2.5e-05 0
82 -0.0001999999999972447 2.5e-05 0
83 -0.0002499999999974445 2.5e-05 0
84 -0.0002999999999976442 2.5e-05 0
85 -0.0003499999999978052 2.5e-05 0
86 -0.0003999999999977912 2.5e-05 0
87 -0.0004499999999979048 2.5e-05 0
88 -0.0004999999999981048 2.5e-05 0
89 -0.0005499999999983044 2.5e-05 0
90 -0.0005999999999984011 2.5e-05 0
91 -0.0006499999999983839 2.5e-05 0
92 -0.0006999999999984805 2.5e-05 0
93 -0.0007499999999986799 2.5e-05 0
94 -0.0007999999999988799 2.5e-05 0
95 -0.0008499999999990796 2.5e-05 0
96 -0.0008999999999992792 2.5e-05 0
97 -0.0009499999999994793 2.5e-05 0
98 -0.0009999999999993909 2.5e-05 0
99 -0.001049999999999221 2.5e-05 0
100 -0.001099999999999401 2.5e-05 0
101 -0.0011499999999996 2.5e-05 0
102 -0.0011999999999998 2.5e-05 0
$EndNodes
$Elements
152
1 1 2 3 1 1 5
2 1 2 3 1 5 6
3 1 2 3 1 6 7
4 1 2 3 1 7 8
5 1 2 3 1 8 9
6 1 2 3 1 9 10
7 1 2 3 1 10 11
8 1 2 3 1 11 12
9 1 2 3 1 12 13
10 1 2 3 1 13 14
11 1 2 3 1 14 15
12 1 2 3 1 15 16
13 1 2 3 1 16 17
14 1 2 3 1 17 18
15 1 2 3 1 18 19
16 1 2 3 1 19 20
17 1 2 3 1 20 21
18 1 2 3 1 21 22
19 1 2 3 1 22 23
20 1 2 3 1 23 24
21 1 2 3 1 24 25
22 1 2 3 1 25 26
23 1 2 3 1 26 27
24 1 2 3 1 27 28
25 1 2 3 1 28 29
26 1 2 3 1 29 30
27 1 2 3 1 30 31
28 1 2 3 1 31 32
29 1 2 3 1 32 33
30 1 2 3 1 33 34
31 1 2 3 1 34 35
32 1 2 3 1 35 36
33 1 2 3 1 36 37
34 1 2 3 1 37 38
35 1 2 3 1 38 39
36 1 2 3 1 39 40
37 1 2 3 1 40 41
38 1 2 3 1 41 42
39 1 2 3 1 42 43
40 1 2 3 1 43 44
41 1 2 3 1 44 45
42 1 2 3 1 45 46
43 1 2 3 1 46 47
44 1 2 3 1 47 48
45 1 2 3 1 48 49
46 1 2 3 1 49 50
47 1 2 3 1 50 51
48 1 2 3 1 51 52
49 1 2 3 1 52 53
50 1 2 3 1 53 2
51 1 2 2 2 2 3
52 1 2 3 3 3 54
53 1 2 3 3 54 55
54 1 2 3 3 55 56
55 1 2 3 3 56 57
56 1 2 3 3 57 58
57 1 2 3 3 58 59
58 1 2 3 3 59 60
59 1 2 3 3 60 61
60 1 2 3 3 61 62
61 1 2 3 3 62 63
62 1 2 3 3 63 64
63 1 2 3 3 64 65
64 1 2 3 3 65 66
65 1 2 3 3 66 67
66 1 2 3 3 67 68
67 1 2 3 3 68 69
68 1 2 3 3 69 70
69 1 2 3 3 70 71
70 1 2 3 3 71 72
71 1 2 3 3 72 73
72 1 2 3 3 73 74
73 1 2 3 3 74 75
74 1 2 3 3 75 76
75 1 2 3 3 76 77
76 1 2 3 3 77 78
77 1 2 3 3 78 79
78 1 2 3 3 79 80
79 1 2 3 3 80 81
80 1 2 3 3 81 82
81 1 2 3 3 82 83
82 1 2 3 3 83 84
83 1 2 3 3 84 85
84 1 2 3 3 85 86
85 1 2 3 3 86 87
86 1 2 3 3 87 88
87 1 2 3 3 88 89
88 1 2 3 3 89 90
89 1 2 3 3 90 91
90 1 2 3 3 91 92
91 1 2 3 3 92 93
92 1 2 3 3 93 94
93 1 2 3 3 94 95
94 1 2 3 3 95 96
95 1 2 3 3 96 97
96 1 2 3 3 97 98
97 1 2 3 3 98 99
98 1 2 3 3 99 100
99 1 2 3 3 100 101
100 1 2 3 3 101 102
101 1 2 3 3 102 4
102 1 2 1 4 4 1
103 3 2 4 6 3 54 53 2
104 3 2 4 6 54 55 52 53
105 3 2 4 6 55 56 51 52
106 3 2 4 6 56 57 50 51
107 3 2 4 6 57 58 49 50
108 3 2 4 6 58 59 48 49
109 3 2 4 6 59 60 47 48
110 3 2 4 6 60 61 46 47
111 3 2 4 6 61 62 45 46
112 3 2 4 6 62 63 44 45
113 3 2 4 6 63 64 43 44
114 3 2 4 6 64 65 42 43
115 3 2 4 6 65 66 41 42
116 3 2 4 6 66 67 40 41
117 3 2 4 6 67 68 39 40
118 3 2 4 6 68 69 38 39
119 3 2 4 6 69 70 37 38
120 3 2 4 6 70 71 36 37
121 3 2 4 6 71 72 35 36
122 3 2 4 6 72 73 34 35
123 3 2 4 6 73 74 33 34
124 3 2 4 6 74 75 32 33
125 3 2 4 6 75 76 31 32
126 3 2 4 6 76 77 30 31
127 3 2 4 6 77 78 29 30
128 3 2 4 6 78 79 28 29
129 3 2 4 6 79 80 27 28
130 3 2 4 6 80 81 26 27
131 3 2 4 6 81 82 25 26
132 3 2 4 6 82 83 24 25
133 3 2 4 6 83 84 23 24
134 3 2 4 6 84 85 22 23
135 3 2 4 6 85 86 21 22
136 3 2 4 6 86 87 20 21
137 3 2 4 6 87 88 19 20
138 3 2 4 6 88 89 18 19
139 3 2 4 6 89 90 17 18
140 3 2 4 6 90 91 16 17
141 3 2 4 6 91 92 15 16
142 3 2 4 6 92 93 14 15
143 3 2 4 6 93 94 13 14
144 3 2 4 6 94 95 12 13
145 3 2 4 6 95 96 11 12
146 3 2 4 6 96 97 10 11
147 3 2 4 6 97 98 9 10
148 3 2 4 6 98 99 8 9
149 3 2 4 6 99 100 7 8
150 3 2 4 6 100 101 6 7
151 3 2 4 6 101 102 5 6
152 3 2 4 6 102 4 1 5
$EndElements
