{
    "mixedEq_premix_1d_flame.dat":
    {
        "nstep": 10
    },
    "mixedEq_premix_1d_flame.ker.dat":
    {
        "scaletab": "/media/aboth/DataPartition/GGLD/PhD/RESEARCH/Flamelets/methaneTry/01_adiabatic/meth_turbulent_scaling_Yc.dat",
        "proptab": "/media/aboth/DataPartition/GGLD/PhD/RESEARCH/Flamelets/methaneTry/01_adiabatic/meth_turbulentProp_table.dat",
        "sourcetab": "/media/aboth/DataPartition/GGLD/PhD/RESEARCH/Flamelets/methaneTry/01_adiabatic/meth_turbulentSource_table.dat",
        "zmean": 0.055, 
        "zvar": 0.0, 
        "cvar": 0.0, 
        "outstep": 10,
		"wit1_x": -0.002,
		"wit2_x": 0.002

    },
    "mixedEq_premix_1d_flame.nsi.dat":
    {
        "uinlet": 0.2
    },
    "mixedEq_premix_1d_flame.tem.dat":
    {
        "tinlet": 298.15
    }
}
